EIA geosets • rOpenSci: eia
…
Groups of regions

If you want data for all fifty states for example, you can set region = "USA"; you do not need to make a vector of all fifty state IDs. However, if you want certain region subsets, there are other options besides making a vector of these values. For example, the eia_geoset accepts shorthand descriptions of specific, popular subsets of states; so popular in fact that their labels ship with R itself in the datasts package.

You can provide simple state abbreviations (without the USA- prefix), state names, and more to the point, US Census regions and divisions. These are two hierarchical sets of US states.

tibble(state.abb, state.name, state.region, state.division)
#> # A tibble: 50 x 4
#>    state.abb state.name  state.region state.division    
#>    <chr>     <chr>       <fct>        <fct>             
#>  1 AL        Alabama     South        East South Central
#>  2 AK        Alaska      West         Pacific           
#>  3 AZ        Arizona     West         Mountain          
#>  4 AR        Arkansas    South        West South Central
#>  5 CA        California  West         Pacific           
#>  6 CO        Colorado    West         Mountain          
#>  7 CT        Connecticut Northeast    New England       
#>  8 DE        Delaware    South        South Atlantic    
#>  9 FL        Florida     South        South Atlantic    
#> 10 GA        Georgia     South        South Atlantic    
#> # ... with 40 more rows
…
region <- "Middle Atlantic"
x <- eia_geoset(id, region, n = 12)
select(x, region, data) %>% unnest(cols = data)
#> # A tibble: 36 x 4
#>    region  value date        year
#>    <chr>   <dbl> <date>     <int>
#>  1 USA-NJ 71019. 2019-01-01  2019
#>  2 USA-NJ 75034. 2018-01-01  2018
#>  3 USA-NJ 75645. 2017-01-01  2017
#>  4 USA-NJ 77611. 2016-01-01  2016
#>  5 USA-NJ 74609. 2015-01-01  2015
#>  6 USA-NJ 68051. 2014-01-01  2014
#>  7 USA-NJ 64751. 2013-01-01  2013
#>  8 USA-NJ 65263. 2012-01-01  2012
#>  9 USA-NJ 64694. 2011-01-01  2011
#> 10 USA-NJ 65682. 2010-01-01  2010
#> # ... with 26 more rows
…
